09_Plot_Preg_Changes
…
pregord.long <- nsf.selected.w.max %>% select(uncchdid, reprostat, pregord_2005, 
    term.or.draw.date, new.preg, new.preg.term.date) %>% gather("sample", "date", 
    term.or.draw.date, new.preg.term.date) %>% gather("time", "pregs", pregord_2005, 
    new.preg) %>% arrange(uncchdid)

pregord.long.clean <- pregord.long[pregord.long$sample == "term.or.draw.date" & 
    pregord.long$time == "pregord_2005" | pregord.long$sample == "new.preg.term.date" & 
    pregord.long$time == "new.preg", ]

pregord.long.clean

## # A tibble: 248 x 6
##    uncchdid reprostat     sample             date       time         pregs
##       <dbl> <chr>         <chr>              <date>     <chr>        <dbl>
##  1    20007 breastfeeding term.or.draw.date  2002-11-15 pregord_2005     1
##  2    20007 breastfeeding new.preg.term.date 2011-03-05 new.preg         3
##  3    20010 breastfeeding term.or.draw.date  2003-10-14 pregord_2005     1
##  4    20010 breastfeeding new.preg.term.date 2009-12-09 new.preg         2
##  5    20036 pregnant      term.or.draw.date  2004-09-07 pregord_2005     1
##  6    20036 pregnant      new.preg.term.date 2013-05-06 new.preg         4
##  7    20042 breastfeeding term.or.draw.date  2003-10-25 pregord_2005     2
##  8    20042 breastfeeding new.preg.term.date 2014-03-15 new.preg         4
##  9    20110 pregnant      term.or.draw.date  2004-10-26 pregord_2005     1
## 10    20110 pregnant      new.preg.term.date 2012-12-11 new.preg         4
## # ... with 238 more rows
…
