09_Plot_Preg_Changes
…
pregord.long.clean <- read_csv(here::here("Output/Data/pregord.long.clean.csv"))

## Parsed with column specification:
## cols(
##   uncchdid = col_double(),
##   reprostat = col_character(),
##   sample = col_character(),
##   date = col_date(format = ""),
##   time = col_character(),
##   pregs = col_double()
## )

pregord.long.clean

## # A tibble: 248 x 6
##    uncchdid reprostat     sample             date       time         pregs
##       <dbl> <chr>         <chr>              <date>     <chr>        <dbl>
##  1    20007 breastfeeding term.or.draw.date  2002-11-15 pregord_2005     1
##  2    20007 breastfeeding new.preg.term.date 2011-03-05 new.preg         3
##  3    20010 breastfeeding term.or.draw.date  2003-10-14 pregord_2005     1
##  4    20010 breastfeeding new.preg.term.date 2009-12-09 new.preg         2
##  5    20036 pregnant      term.or.draw.date  2004-09-07 pregord_2005     1
##  6    20036 pregnant      new.preg.term.date 2013-05-06 new.preg         4
##  7    20042 breastfeeding term.or.draw.date  2003-10-25 pregord_2005     2
##  8    20042 breastfeeding new.preg.term.date 2014-03-15 new.preg         4
##  9    20110 pregnant      term.or.draw.date  2004-10-26 pregord_2005     1
## 10    20110 pregnant      new.preg.term.date 2012-12-11 new.preg         4
## # ... with 238 more rows
…
barcode_ids_nsf_picks %>% arrange(uncchdid, pregnum)

## # A tibble: 450 x 19
##    uncchdid basebrgy.x basewman pregdbsdate shipdatepr          pregnum
##       <dbl>      <dbl>    <dbl> <date>      <dttm>                <dbl>
##  1    20007          1       27 2011-01-28  2011-06-14 00:00:00       1
##  2    20010          1       33 2009-09-15  2009-10-19 00:00:00       1
##  3    20036          1       63 2010-01-08  2010-02-01 00:00:00       1
##  4    20036          1       63 2013-02-27  2013-04-23 00:00:00       2
##  5    20037          1       64 2012-04-01  2012-06-19 00:00:00       1
##  6    20040          1       70 2011-08-14  2011-12-15 00:00:00       1
##  7    20040          1       70 2012-12-02  2013-04-23 00:00:00       2
##  8    20042          1       72 2014-01-13  2014-04-01 00:00:00       1
##  9    20043          1       73 2010-07-14  2010-12-13 00:00:00       1
## 10    20068          1      104 2010-12-14  2011-06-14 00:00:00       1
## # ... with 440 more rows, and 13 more variables: specimen_id <dbl>,
## #   tech_id <chr>, date_received <dttm>, basebrgy.y <chr>,
## #   basewman3 <dbl>, uncchdid_ex <dbl>, number_spots_80_percent <dbl>,
## #   comment_codes <dbl>, punches <dbl>, original_bag_name <chr>,
## #   bag_number <dbl>, bundle_number <dbl>, card_number <dbl>

I will use intersect to see if I have any names that overlap.

intersect(names(barcode_ids_nsf_picks), names(pregord.long.clean))

## [1] "uncchdid"

I have date in both, but one is for DBS and one is for pregnancy (parturition date) presumably.

First of all, I dont want ALL the pregnancies - many of these are from 2005, and I already have processed those samples.

pregord.long.clean %>% filter(time == "new.preg")

## # A tibble: 124 x 6
##    uncchdid reprostat     sample             date       time     pregs
##       <dbl> <chr>         <chr>              <date>     <chr>    <dbl>
##  1    20007 breastfeeding new.preg.term.date 2011-03-05 new.preg     3
##  2    20010 breastfeeding new.preg.term.date 2009-12-09 new.preg     2
##  3    20036 pregnant      new.preg.term.date 2013-05-06 new.preg     4
##  4    20042 breastfeeding new.preg.term.date 2014-03-15 new.preg     4
##  5    20110 pregnant      new.preg.term.date 2012-12-11 new.preg     4
##  6    20144 breastfeeding new.preg.term.date 2013-07-15 new.preg     5
##  7    20156 pregnant      new.preg.term.date 2009-05-28 new.preg     4
##  8    20283 nulliparous   new.preg.term.date 2013-01-11 new.preg     2
##  9    20313 breastfeeding new.preg.term.date 2010-05-19 new.preg     3
## 10    20319 pregnant      new.preg.term.date 2010-09-07 new.preg     2
## # ... with 114 more rows
…
Now, how does it look?

pregs_dbs_dates %>% arrange(date)

## # A tibble: 292 x 4
##    uncchdid date       preg.no sample.type
##       <dbl> <date>       <dbl> <chr>      
##  1    21839 2009-03-19       1 DBS        
##  2    22224 2009-03-20       1 DBS        
##  3    20156 2009-03-21       1 DBS        
##  4    20917 2009-03-24       1 DBS        
##  5    22224 2009-03-25       3 Pregnancy  
##  6    21090 2009-03-28       1 DBS        
##  7    20438 2009-03-29       1 DBS        
##  8    22996 2009-03-29       1 DBS        
##  9    21090 2009-04-02       4 Pregnancy  
## 10    22694 2009-04-03       1 DBS        
## # ... with 282 more rows
…
What I will do is group by ID, create a count of blood sample based on date, and then use that to partition the data, then ungroup.

pregs_dbs_dates <- pregs_dbs_dates %>% group_by(uncchdid) %>% mutate(N = n()) %>% 
    ungroup()

pregs_dbs_dates

## # A tibble: 292 x 6
##    uncchdid date       preg.no sample.type Year      N
##       <dbl> <date>       <dbl> <chr>       <chr> <int>
##  1    20007 2011-03-05       3 Pregnancy   2011      2
##  2    20010 2009-12-09       2 Pregnancy   2009      2
##  3    20036 2013-05-06       4 Pregnancy   2013      3
##  4    20042 2014-03-15       4 Pregnancy   2014      2
##  5    20110 2012-12-11       4 Pregnancy   2012      2
##  6    20144 2013-07-15       5 Pregnancy   2013      4
##  7    20156 2009-05-28       4 Pregnancy   2009      2
##  8    20283 2013-01-11       2 Pregnancy   2013      2
##  9    20313 2010-05-19       3 Pregnancy   2010      2
## 10    20319 2010-09-07       2 Pregnancy   2010      2
## # ... with 282 more rows
…
The reason I have all these extra DBS samples is because I calculated the last pregnancy in the NSF study, but we have blood samples for sometimes several of them. This is fine. I can easily filter to the highest (latest) dates.

To do this I will use group_by again, plus the summarize function inside dplyr.

pregs_dbs_dates_reduced <- pregs_dbs_dates %>% group_by(uncchdid, sample.type) %>% 
    summarize(max.date = max(date))

pregs_dbs_dates_reduced

## # A tibble: 248 x 3
## # Groups:   uncchdid [?]
##    uncchdid sample.type max.date  
##       <dbl> <chr>       <date>    
##  1    20007 DBS         2011-01-28
##  2    20007 Pregnancy   2011-03-05
##  3    20010 DBS         2009-09-15
##  4    20010 Pregnancy   2009-12-09
##  5    20036 DBS         2013-02-27
##  6    20036 Pregnancy   2013-05-06
##  7    20042 DBS         2014-01-13
##  8    20042 Pregnancy   2014-03-15
##  9    20110 DBS         2012-11-08
## 10    20110 Pregnancy   2012-12-11
## # ... with 238 more rows
…
